^C:\USERS\XY6549JI\SOURCE\REPOS\YPFB\YPFB\DEBUG\DETAIL.OBJ|C:\USERS\XY6549JI\SOURCE\REPOS\YPFB\YPFB\DEBUG\DETAIL_CONFIRM.OBJ|C:\USERS\XY6549JI\SOURCE\REPOS\YPFB\YPFB\DEBUG\DETAIL_SUMMARY.OBJ|C:\USERS\XY6549JI\SOURCE\REPOS\YPFB\YPFB\DEBUG\DO_CLICK.OBJ|C:\USERS\XY6549JI\SOURCE\REPOS\YPFB\YPFB\DEBUG\END.OBJ|C:\USERS\XY6549JI\SOURCE\REPOS\YPFB\YPFB\DEBUG\FIND.OBJ|C:\USERS\XY6549JI\SOURCE\REPOS\YPFB\YPFB\DEBUG\FOUND.OBJ|C:\USERS\XY6549JI\SOURCE\REPOS\YPFB\YPFB\DEBUG\HOME.OBJ|C:\USERS\XY6549JI\SOURCE\REPOS\YPFB\YPFB\DEBUG\INSERT_TEXT.OBJ|C:\USERS\XY6549JI\SOURCE\REPOS\YPFB\YPFB\DEBUG\LOGIN.OBJ|C:\USERS\XY6549JI\SOURCE\REPOS\YPFB\YPFB\DEBUG\SLEEP.OBJ|C:\USERS\XY6549JI\SOURCE\REPOS\YPFB\YPFB\DEBUG\YPFB.OBJ
C:\USERS\XY6549JI\SOURCE\REPOS\YPFB\DEBUG\YPFB.ILK
C:\USERS\XY6549JI\SOURCE\REPOS\YPFB\DEBUG\YPFB.EXE
C:\USERS\XY6549JI\SOURCE\REPOS\YPFB\DEBUG\YPFB.PDB
