^C:\USERS\XY6549JI\SOURCE\REPOS\YPFB\YPFB\X64\RELEASE\DETAIL.OBJ|C:\USERS\XY6549JI\SOURCE\REPOS\YPFB\YPFB\X64\RELEASE\DETAIL_CONFIRM.OBJ|C:\USERS\XY6549JI\SOURCE\REPOS\YPFB\YPFB\X64\RELEASE\DETAIL_SUMMARY.OBJ|C:\USERS\XY6549JI\SOURCE\REPOS\YPFB\YPFB\X64\RELEASE\DO_CLICK.OBJ|C:\USERS\XY6549JI\SOURCE\REPOS\YPFB\YPFB\X64\RELEASE\END.OBJ|C:\USERS\XY6549JI\SOURCE\REPOS\YPFB\YPFB\X64\RELEASE\FIND.OBJ|C:\USERS\XY6549JI\SOURCE\REPOS\YPFB\YPFB\X64\RELEASE\FOUND.OBJ|C:\USERS\XY6549JI\SOURCE\REPOS\YPFB\YPFB\X64\RELEASE\HOME.OBJ|C:\USERS\XY6549JI\SOURCE\REPOS\YPFB\YPFB\X64\RELEASE\INSERT_TEXT.OBJ|C:\USERS\XY6549JI\SOURCE\REPOS\YPFB\YPFB\X64\RELEASE\LOGIN.OBJ|C:\USERS\XY6549JI\SOURCE\REPOS\YPFB\YPFB\X64\RELEASE\SLEEP.OBJ|C:\USERS\XY6549JI\SOURCE\REPOS\YPFB\YPFB\X64\RELEASE\YPFB.OBJ|C:\USERS\XY6549JI\SOURCE\REPOS\YPFB\YPFB\X64\RELEASE\YPFB_ICON.RES
C:\PROGRAM FILES (X86)\WINDOWS KITS\10\LIB\10.0.18362.0\UM\X64\KERNEL32.LIB
C:\PROGRAM FILES (X86)\WINDOWS KITS\10\LIB\10.0.18362.0\UM\X64\USER32.LIB
C:\PROGRAM FILES (X86)\WINDOWS KITS\10\LIB\10.0.18362.0\UM\X64\GDI32.LIB
C:\PROGRAM FILES (X86)\WINDOWS KITS\10\LIB\10.0.18362.0\UM\X64\WINSPOOL.LIB
C:\PROGRAM FILES (X86)\WINDOWS KITS\10\LIB\10.0.18362.0\UM\X64\COMDLG32.LIB
C:\PROGRAM FILES (X86)\WINDOWS KITS\10\LIB\10.0.18362.0\UM\X64\ADVAPI32.LIB
C:\PROGRAM FILES (X86)\WINDOWS KITS\10\LIB\10.0.18362.0\UM\X64\SHELL32.LIB
C:\PROGRAM FILES (X86)\WINDOWS KITS\10\LIB\10.0.18362.0\UM\X64\OLE32.LIB
C:\PROGRAM FILES (X86)\WINDOWS KITS\10\LIB\10.0.18362.0\UM\X64\OLEAUT32.LIB
C:\PROGRAM FILES (X86)\WINDOWS KITS\10\LIB\10.0.18362.0\UM\X64\UUID.LIB
C:\PROGRAM FILES (X86)\WINDOWS KITS\10\LIB\10.0.18362.0\UM\X64\ODBC32.LIB
C:\PROGRAM FILES (X86)\WINDOWS KITS\10\LIB\10.0.18362.0\UM\X64\ODBCCP32.LIB
C:\USERS\XY6549JI\SOURCE\REPOS\YPFB\YPFB\X64\RELEASE\YPFB_ICON.RES
C:\USERS\XY6549JI\SOURCE\REPOS\YPFB\YPFB\X64\RELEASE\DETAIL.OBJ
C:\USERS\XY6549JI\SOURCE\REPOS\YPFB\YPFB\X64\RELEASE\DETAIL_CONFIRM.OBJ
C:\USERS\XY6549JI\SOURCE\REPOS\YPFB\YPFB\X64\RELEASE\DETAIL_SUMMARY.OBJ
C:\USERS\XY6549JI\SOURCE\REPOS\YPFB\YPFB\X64\RELEASE\DO_CLICK.OBJ
C:\USERS\XY6549JI\SOURCE\REPOS\YPFB\YPFB\X64\RELEASE\END.OBJ
C:\USERS\XY6549JI\SOURCE\REPOS\YPFB\YPFB\X64\RELEASE\FIND.OBJ
C:\USERS\XY6549JI\SOURCE\REPOS\YPFB\YPFB\X64\RELEASE\FOUND.OBJ
C:\USERS\XY6549JI\SOURCE\REPOS\YPFB\YPFB\X64\RELEASE\HOME.OBJ
C:\USERS\XY6549JI\SOURCE\REPOS\YPFB\YPFB\X64\RELEASE\INSERT_TEXT.OBJ
C:\USERS\XY6549JI\SOURCE\REPOS\YPFB\YPFB\X64\RELEASE\LOGIN.OBJ
C:\USERS\XY6549JI\SOURCE\REPOS\YPFB\YPFB\X64\RELEASE\SLEEP.OBJ
C:\USERS\XY6549JI\SOURCE\REPOS\YPFB\YPFB\X64\RELEASE\YPFB.OBJ
C:\WINDOWS\GLOBALIZATION\SORTING\SORTDEFAULT.NLS
C:\PROGRAM FILES (X86)\MICROSOFT VISUAL STUDIO\2019\COMMUNITY\VC\TOOLS\MSVC\14.22.27905\BIN\HOSTX86\X64\C2.DLL
C:\PROGRAM FILES (X86)\MICROSOFT VISUAL STUDIO\2019\COMMUNITY\VC\TOOLS\MSVC\14.22.27905\LIB\X64\MSVCPRT.LIB
C:\PROGRAM FILES (X86)\MICROSOFT VISUAL STUDIO\2019\COMMUNITY\VC\TOOLS\MSVC\14.22.27905\LIB\X64\MSVCRT.LIB
C:\PROGRAM FILES (X86)\MICROSOFT VISUAL STUDIO\2019\COMMUNITY\VC\TOOLS\MSVC\14.22.27905\LIB\X64\OLDNAMES.LIB
C:\PROGRAM FILES (X86)\MICROSOFT VISUAL STUDIO\2019\COMMUNITY\VC\TOOLS\MSVC\14.22.27905\LIB\X64\VCRUNTIME.LIB
C:\PROGRAM FILES (X86)\WINDOWS KITS\10\LIB\10.0.18362.0\UCRT\X64\UCRT.LIB
C:\PROGRAM FILES (X86)\MICROSOFT VISUAL STUDIO\2019\COMMUNITY\VC\TOOLS\MSVC\14.22.27905\BIN\HOSTX86\X64\3082\LINKUI.DLL
C:\PROGRAM FILES (X86)\MICROSOFT VISUAL STUDIO\2019\COMMUNITY\VC\TOOLS\MSVC\14.22.27905\BIN\HOSTX86\X64\CVTRES.EXE
C:\WINDOWS\SYSTEM32\TZRES.DLL
